<svg width="150" height="150" viewBox="0 0 150 150" fill="none" xmlns="http://www.w3.org/2000/svg">
    <g clip-path="url(#clip0)">
        <path d="M58.2905 54.0127L147.984 76.1124L149.935 69.9589L113.285 23.814L59.3743 47.6589L58.2905 54.0127ZM110.628 34.6001L133.593 63.5147L76.8574 49.5358L110.628 34.6001Z" fill="#9EB3B6"/>
        <path d="M70.3205 18.3014C70.3205 8.37135 62.2421 0.292969 52.3121 0.292969C45.0027 0.292969 38.4716 4.65546 35.6712 11.4075L43.7897 14.7743C45.2236 11.3159 48.5687 9.08203 52.3121 9.08203C57.3956 9.08203 61.5314 13.2179 61.5314 18.3014C61.5314 23.386 57.3956 27.5219 52.3121 27.5219H0V36.311H52.3121C62.2421 36.311 70.3205 28.2326 70.3205 18.3014Z" fill="#9EB3B6"/>
        <path d="M42.8982 83.3061C42.8982 86.6009 40.2168 89.2822 36.9209 89.2822C34.9113 89.2822 33.0471 88.2797 31.9347 86.602L24.6105 91.46C27.356 95.6005 31.9588 98.0713 36.9209 98.0713C45.0634 98.0713 51.6872 91.4474 51.6872 83.3061C51.6872 75.1636 45.0634 68.5398 36.9209 68.5398H0V77.3289H36.9209C40.2168 77.3289 42.8982 80.0102 42.8982 83.3061Z" fill="#9EB3B6"/>
        <path d="M0 48.0309H22.7051V56.8199H0V48.0309Z" fill="#9EB3B6"/>
        <path d="M31.4954 48.0309H40.2844V56.8199H31.4954V48.0309Z" fill="#9EB3B6"/>
        <path d="M142.899 141.474V79.8615H60.6377V141.474H0V150.263H150V141.474H142.899ZM69.4267 88.6505H134.11V141.474H118.634V104.877H84.9026V141.474H69.4267V88.6505ZM109.845 141.474H93.6916V113.666H109.845V141.474Z" fill="#9EB3B6"/>
    </g>
    <defs>
        <clipPath id="clip0">
            <rect width="150" height="150" fill="white"/>
        </clipPath>
    </defs>
</svg>
